{
  "kind": "singleType",
  "collectionName": "front_page_editors",
  "info": {
    "name": "Front page editor",
    "description": ""
  },
  "options": {
    "increments": true,
    "timestamps": true,
    "draftAndPublish": false
  },
  "attributes": {
    "FeaturedTagBlocks": {
      "type": "component",
      "repeatable": true,
      "component": "front-page-editor.featured-tags",
      "max": 3
    },
    "menuFeaturedTags": {
      "type": "component",
      "repeatable": true,
      "component": "front-page-editor.menu-featured-tags",
      "max": 3
    },
    "featuredTopics": {
      "type": "component",
      "repeatable": false,
      "component": "front-page-editor.featured-topics"
    },
    "breakingNews": {
      "type": "component",
      "repeatable": false,
      "component": "front-page-editor.breaking-news"
    },
    "SidebarSponsoredPost": {
      "model": "post"
    },
    "frontpagePosts": {
      "type": "json"
    },
    "liveFrontpagePosts": {
      "type": "json"
    },
    "editingUser": {
      "plugin": "admin",
      "model": "user"
    },
    "editingTime": {
      "type": "datetime"
    }
  }
}
