{
  "collectionName": "components_front_page_editor_breaking_news",
  "info": {
    "name": "breakingNews",
    "icon": "allergies",
    "description": ""
  },
  "options": {},
  "attributes": {
    "post": {
      "model": "post"
    },
    "expireAt": {
      "type": "datetime",
      "required": false
    },
    "breakingText": {
      "type": "richtext"
    }
  }
}
