{
  "collectionName": "components_front_page_editor_menu_featured_tags",
  "info": {
    "name": "menuFeaturedTags",
    "icon": "backspace",
    "description": ""
  },
  "options": {},
  "attributes": {
    "tag": {
      "model": "tag"
    },
    "label": {
      "type": "string",
      "required": true
    }
  }
}
