{
  "routes": [
    {
      "method": "GET",
      "path": "/tags/get-latest-drafts",
      "handler": "tag.getLatestDrafts",
      "config": {
        "policies": []
      }
    },
    {
      "method": "GET",
      "path": "/tags",
      "handler": "tag.find",
      "config": {
        "policies": []
      }
    },
    {
      "method": "GET",
      "path": "/tags/count",
      "handler": "tag.count",
      "config": {
        "policies": []
      }
    },
    {
      "method": "GET",
      "path": "/tags/:id",
      "handler": "tag.findOne",
      "config": {
        "policies": []
      }
    },
    {
      "method": "POST",
      "path": "/tags",
      "handler": "tag.create",
      "config": {
        "policies": []
      }
    },
    {
      "method": "PUT",
      "path": "/tags/:id",
      "handler": "tag.update",
      "config": {
        "policies": []
      }
    },
    {
      "method": "DELETE",
      "path": "/tags/:id",
      "handler": "tag.delete",
      "config": {
        "policies": []
      }
    },
    {
      "method": "POST",
      "path": "/newsletter-subscribe",
      "handler": "tag.newsletterSubscribe",
      "config": {
        "policies": []
      }
    },
    {
      "method": "GET",
      "path": "/weather-api",
      "handler": "tag.weatherApi",
      "config": {
        "policies": []
      }
    },
    {
      "method": "GET",
      "path": "/weather-stack",
      "handler": "tag.weatherStack",
      "config": {
        "policies": []
      }
    },
    {
      "method": "GET",
      "path": "/ambee-weather",
      "handler": "tag.ambeeWeather",
      "config": {
        "policies": []
      }
    }
  ]
}
