{
  "routes": [
    {
      "method": "GET",
      "path": "/polls",
      "handler": "poll.find",
      "config": {
        "policies": []
      }
    },
    {
      "method": "GET",
      "path": "/polls/count",
      "handler": "poll.count",
      "config": {
        "policies": []
      }
    },
    {
      "method": "GET",
      "path": "/polls/:id",
      "handler": "poll.findOne",
      "config": {
        "policies": []
      }
    },
    {
      "method": "POST",
      "path": "/polls",
      "handler": "poll.create",
      "config": {
        "policies": []
      }
    },
    {
      "method": "PUT",
      "path": "/polls/:id",
      "handler": "poll.update",
      "config": {
        "policies": []
      }
    },
    {
      "method": "DELETE",
      "path": "/polls/:id",
      "handler": "poll.delete",
      "config": {
        "policies": []
      }
    },
    {
      "method": "POST",
      "path": "/polls/answers/:id",
      "handler": "poll.answer",
      "config": {
        "policies": []
      }
    }
  ]
}
