{
  "routes": [
    {
      "method": "GET",
      "path": "/front-page-editor",
      "handler": "front-page-editor.find",
      "config": {
        "policies": []
      }
    },
    {
      "method": "POST",
      "path": "/front-page-editor/lock",
      "handler": "front-page-editor.pingLock",
      "config": {
        "policies": []
      }
    },
    {
      "method": "POST",
      "path": "/front-page-editor/unlock",
      "handler": "front-page-editor.pingUnLock",
      "config": {
        "policies": []
      }
    },
    {
      "method": "POST",
      "path": "/front-page-editor/forceget",
      "handler": "front-page-editor.forceGetFromEditor",
      "config": {
        "policies": []
      }
    },
    {
      "method": "PUT",
      "path": "/front-page-editor",
      "handler": "front-page-editor.update",
      "config": {
        "policies": []
      }
    },
    {
      "method": "DELETE",
      "path": "/front-page-editor",
      "handler": "front-page-editor.delete",
      "config": {
        "policies": []
      }
    }
  ]
}
